Item,Price,Is_Side,Restaurant,Location,Cuisine
Gelato/Sorbetto - 1 Scoop,4,n,Cafe West Union,West Union,Dessert
Gelato/Sorbetto - 2 Scoop,5.5,n,Cafe West Union,West Union,Dessert
Gelato/Sorbetto - 3 Scoop,7,n,Cafe West Union,West Union,Dessert
Smoothies/Juices - 21 OZ,4.75,n,Cafe West Union,West Union,Drink
Smoothies/Juices - 20 OZ,5.25,n,Cafe West Union,West Union,Drink
Drip Coffee - Small,2,n,Cafe West Union,West Union,Drink
Drip Coffee - Large,2.25,n,Cafe West Union,West Union,Drink
Espresso - Large,2.25,n,Cafe West Union,West Union,Drink
Red Eye - Small,3,n,Cafe West Union,West Union,Drink
Red Eye - Large,3.25,n,Cafe West Union,West Union,Drink
Americano - Small,2.5,n,Cafe West Union,West Union,Drink
Americano - Large,3,n,Cafe West Union,West Union,Drink
Macchiato - Large,3,n,Cafe West Union,West Union,Drink
Cappuccino - Small,3.5,n,Cafe West Union,West Union,Drink
Cappuccino - Large,4,n,Cafe West Union,West Union,Drink
Cafe Latte - Small,3.5,n,Cafe West Union,West Union,Drink
Cafe Latte - Large,4,n,Cafe West Union,West Union,Drink
Latte Nutella - Small,3.5,n,Cafe West Union,West Union,Drink
Latte Nutella - Large,4,n,Cafe West Union,West Union,Drink
Mocha Latte - Small,4,n,Cafe West Union,West Union,Drink
Mocha Latte - Large,4.5,n,Cafe West Union,West Union,Drink
Caramel Leche - Small,4,n,Cafe West Union,West Union,Drink
Caramel Leche - Large,4.5,n,Cafe West Union,West Union,Drink
Chai Latte - Small,3.75,n,Cafe West Union,West Union,Drink
Chai Latte - Large,4,n,Cafe West Union,West Union,Drink
Matcha Green Tea Latte - Small,4,n,Cafe West Union,West Union,Drink
Matcha Green Tea Latte - Large,4.5,n,Cafe West Union,West Union,Drink
Vietnamese Iced Coffee - Small,4.5,n,Cafe West Union,West Union,Drink
Vietnamese Iced Coffee - Large,5,n,Cafe West Union,West Union,Drink
Hot Chocolate - Small,2.5,n,Cafe West Union,West Union,Drink
Hot Chocolate - Large,3,n,Cafe West Union,West Union,Drink
Organic Whole Leaf Tea - Large,2.25,n,Cafe West Union,West Union,Drink
Frappes - Small,4.75,n,Cafe West Union,West Union,Drink
Frappes - Large,5.25,n,Cafe West Union,West Union,Drink
Croque Monieur Crepe,7,n,Cafe West Union,West Union,Specialty
Truffled Hummus Crepe,7,n,Cafe West Union,West Union,Specialty
Chicken Pesto Crepe,8,n,Cafe West Union,West Union,Specialty
Apple and Brie Crepe,7,n,Cafe West Union,West Union,Dessert
Cinnamon Sugar Crepe,5,n,Cafe West Union,West Union,Dessert
Nutella Crepe,6,n,Cafe West Union,West Union,Dessert
Banana Foster,5,n,Cafe West Union,West Union,Dessert
Crepe Suzette Crepe,6,n,Cafe West Union,West Union,Dessert
Steak Pizzaiola,8.5,n,Cafe West Union,West Union,Sandwich
Eggplant Mozzarella,7,n,Cafe West Union,West Union,Sandwich
Pimento Cheese and Bacon,6.25,n,Cafe West Union,West Union,Sandwich
Turkey Avocado,8,n,Cafe West Union,West Union,Sandwich
Portobello Spinach and Artichoke,7,n,Cafe West Union,West Union,Sandwich
Brown Rice,3,y,Devils Bistro,Central Campus,Other
Saffron Rice,3,y,Devils Bistro,Central Campus,Other
Jasmine Rice,3,y,Devils Bistro,Central Campus,Other
Roasted Potatoes,3,y,Devils Bistro,Central Campus,Other
Mac & Cheese,3,y,Devils Bistro,Central Campus,Other
Loaded Mashers,3,y,Devils Bistro,Central Campus,Other
Seasonal Vegetables,3,y,Devils Bistro,Central Campus,Other
Glazed Carrots,3,y,Devils Bistro,Central Campus,Other
Potato Salad,3,y,Devils Bistro,Central Campus,Salad
Pasta Salad,3,y,Devils Bistro,Central Campus,Salad
Side Salad,3,y,Devils Bistro,Central Campus,Salad
Fresh Fruit,3,y,Devils Bistro,Central Campus,Other
Cupcakes,3,n,Devils Bistro,Central Campus,Dessert
Brownies,3,n,Devils Bistro,Central Campus,Dessert
Bars,3,n,Devils Bistro,Central Campus,Dessert
Gelato,3,n,Devils Bistro,Central Campus,Dessert
Sorbet,3,n,Devils Bistro,Central Campus,Dessert
Ice Cream,3,n,Devils Bistro,Central Campus,Dessert
Coffee Bar,3,n,Devils Bistro,Central Campus,Dessert
Espresso,4,n,Devils Bistro,Central Campus,Drink
Cappuccino,4,n,Devils Bistro,Central Campus,Drink
Hot Tea,4,n,Devils Bistro,Central Campus,Drink
Chai,4,n,Devils Bistro,Central Campus,Drink
Smoothies,4,n,Devils Bistro,Central Campus,Drink
Fresh Juices,4,n,Devils Bistro,Central Campus,Drink
Chicken & Sausage Gumbo,3,n,Devils Bistro,Central Campus,Drink
Corn & Shrimp Chowder,3,y,Devils Bistro,Central Campus,Soup
Black Bean,3,y,Devils Bistro,Central Campus,Soup
Potato & Leek,3,y,Devils Bistro,Central Campus,Soup
Lentil & Green Pea,3,y,Devils Bistro,Central Campus,Soup
Carrot Ginger,3,y,Devils Bistro,Central Campus,Soup
Spicy Tomato Bisque,3,y,Devils Bistro,Central Campus,Soup
NC Brunswick Stew,3,y,Devils Bistro,Central Campus,Soup
Chicken Tortilla,3,y,Devils Bistro,Central Campus,Soup
Tijuana Tacos - Chicken,10,n,Devils Bistro,Central Campus,Mexican
Tijuana Tacos - Beef,10,n,Devils Bistro,Central Campus,Mexican
Fajita Quesadilla,12,n,Devils Bistro,Central Campus,Mexican
Whole Wheat Penne,7,n,Devils Bistro,Central Campus,Italian
Lasagna a la Mia,8,n,Devils Bistro,Central Campus,Italian
Sizzlin' Wok,7,n,Devils Bistro,Central Campus,Asian
Apple Coconut Curry,7,n,Devils Bistro,Central Campus,Asian
Apricot Bourbon Salmon,11,n,Devils Bistro,Central Campus,American
Cowboy Sandwich,11,n,Devils Bistro,Central Campus,Sandwich
Shrimp n Grits,10,n,Devils Bistro,Central Campus,American
Nawlins Po' Boy,9,n,Devils Bistro,Central Campus,American
Dame's Chicken Love Supreme,9,n,Devils Bistro,Central Campus,American
Grilled Mediterranean,8,n,Devils Bistro,Central Campus,Mediterranean
Blue Devil Wedge,7,n,Devils Bistro,Central Campus,American
Strawberry Balsamic,8,n,Devils Bistro,Central Campus,Salad
Farmer's Salad,9,n,Devils Bistro,Central Campus,Salad
"Orchard, Patch and Poppy",9,n,Devils Bistro,Central Campus,Salad
Avocado BLT,7,n,Devils Bistro,Central Campus,Sandwich
The Gobbler,8,n,Devils Bistro,Central Campus,Sandwich
Veggie Stack,7,n,Devils Bistro,Central Campus,Sandwich
Chunky Chicken Salad,7,n,Devils Bistro,Central Campus,Sandwich
Shrimp Salad Wrap,8,n,Devils Bistro,Central Campus,Sandwich
Beef & Blue,8,n,Devils Bistro,Central Campus,Sandwich
What Da Cluck?,8,n,Devils Bistro,Central Campus,Sandwich
Dame's BIG Burger,7,n,Devils Bistro,Central Campus,Sandwich
Dame's Wings,7,n,Devils Bistro,Central Campus,American
Dame's Tenders,8,n,Devils Bistro,Central Campus,American
Meet My Veggies,9,n,Devils Bistro,Central Campus,Italian
Double or Nothing,10,n,Devils Bistro,Central Campus,Italian
Classic Margherita,9,n,Devils Bistro,Central Campus,Italian
Chicken Deluxe,11,n,Devils Bistro,Central Campus,Italian
Pizza Blanco,9,n,Devils Bistro,Central Campus,Italian
Fresh Cut Fruit,4,y,Devils Bistro,Central Campus,Other
Breakfast Breads/Pastries,4,y,Devils Bistro,Central Campus,Breakfast
Cold or Hot Cereals,4,y,Devils Bistro,Central Campus,Breakfast
Dame's Signature Chicken & Waffles,10,n,Devils Bistro,Central Campus,Breakfast
Steak & Eggs,12,n,Devils Bistro,Central Campus,Breakfast
Beef and Cheddar Omelet,8,n,Devils Bistro,Central Campus,Breakfast
"Spinach, Tomato. Feta Omelet",8,n,Devils Bistro,Central Campus,Breakfast
Sausage Omelet,8,n,Devils Bistro,Central Campus,Breakfast
Ham Omelet,8,n,Devils Bistro,Central Campus,Breakfast
Bacon Omelet,8,n,Devils Bistro,Central Campus,Breakfast
"Waffles, Waffles, Waffles",7,n,Devils Bistro,Central Campus,Breakfast
The Buttercups,9,n,Devils Bistro,Central Campus,Breakfast
Frosted French Toast,8,n,Devils Bistro,Central Campus,Breakfast
Egg Basket,8,n,Devils Bistro,Central Campus,Breakfast
Frittatas,7,n,Devils Bistro,Central Campus,Breakfast
Breakfast Sandwich,7,n,Devils Bistro,Central Campus,Breakfast
Steel Cut Oatmeal,6,n,Devils Bistro,Central Campus,Breakfast
Homemade Granola w/Yogurt,7,n,Devils Bistro,Central Campus,Breakfast
Sweet Potato Tots,4.25,y,Devils Krafthouse,West Union,Other
French Fries,4.25,y,Devils Krafthouse,West Union,Other
Cheese Quesadilla,6.55,n,Devils Krafthouse,West Union,Mexican
Wings,7.85,n,Devils Krafthouse,West Union,American
Chicken Tenders,6.85,n,Devils Krafthouse,West Union,American
Nachos,8.35,n,Devils Krafthouse,West Union,American
Chips and Salsa,3.75,y,Devils Krafthouse,West Union,Mexican
Soft Pretzel,3,y,Devils Krafthouse,West Union,American
DKH Turkey Club Double Decker,9.25,n,Devils Krafthouse,West Union,Sandwich
Crispy Chicken Sandwich,9.35,n,Devils Krafthouse,West Union,Sandwich
Kratfhouse Cheese Steak Sandwich,9.45,n,Devils Krafthouse,West Union,Sandwich
Grilled Pimento Cheese Sandwich,8.95,n,Devils Krafthouse,West Union,Sandwich
Black Bean Tortilla Soup,3.85,n,Devils Krafthouse,West Union,Soup
DKH Homestyle Chili,6.25,n,Devils Krafthouse,West Union,Soup
Southwest Chopped Salad,7.95,n,Devils Krafthouse,West Union,Salad
Caesar Salad,7.75,n,Devils Krafthouse,West Union,Salad
Greek Salad,7.8,n,Devils Krafthouse,West Union,Salad
DKH Classic Burger,8.75,n,Devils Krafthouse,West Union,Sandwich
Sloppy Burger,9.45,n,Devils Krafthouse,West Union,Sandwich
Southwestern Burger,9.55,n,Devils Krafthouse,West Union,Sandwich
French Burger,9.65,n,Devils Krafthouse,West Union,Sandwich
Krafthouse Krazy Burger,9.85,n,Devils Krafthouse,West Union,Sandwich
Ground Beef Tacos,8.55,n,Devils Krafthouse,West Union,Mexican
Grilled Chicken Tacos,8.65,n,Devils Krafthouse,West Union,Mexican
Grilled Fish Tacos,9.95,n,Devils Krafthouse,West Union,Mexican
Banana Pudding,6,y,Devils Krafthouse,West Union,Dessert
Chocolate Brownie,6,y,Devils Krafthouse,West Union,Dessert
Jumbo Rice Krispy,3,y,Devils Krafthouse,West Union,Dessert
Greens Salad (small),6,n,Farmstead,West Union,Salad
Vegetables Salad (small),6,n,Farmstead,West Union,Salad
Beans and Toppings Salad (small),6,n,Farmstead,West Union,Salad
Cheeses and Mixed Salad (small),6,n,Farmstead,West Union,Salad
Greens Salad (large),8,n,Farmstead,West Union,Salad
Vegetables Salad (large),8,n,Farmstead,West Union,Salad
Beans and Toppings Salad (large),8,n,Farmstead,West Union,Salad
Cheese and Mixed Salad (large),8,n,Farmstead,West Union,Salad
Farmstead Burger,10,n,Farmstead,West Union,Sandwich
Farmstead BLT,10,n,Farmstead,West Union,Sandwich
Pulled Pork Sandwich,10,n,Farmstead,West Union,Sandwich
Local Sausage Bahn Mi,10,n,Farmstead,West Union,Sandwich
Turkey Sandwich,10,n,Farmstead,West Union,Sandwich
Chicken Sandwich,10,n,Farmstead,West Union,Sandwich
Chicken Shawarma Sandwich,10,n,Farmstead,West Union,Sandwich
Lamb Sandwich,10,n,Farmstead,West Union,Sandwich
Brisket Sandwich,10,n,Farmstead,West Union,Sandwich
Farmstead Grilled Cheese Sandwich,10,n,Farmstead,West Union,Sandwich
Pressed Pork Sandwich,10,n,Farmstead,West Union,Sandwich
Chicken/Turkey Potpie Entree,10,n,Farmstead,West Union,American
Chicken/Turkey Entree,10,n,Farmstead,West Union,American
Salmon/Trout Entree,10,n,Farmstead,West Union,American
Shrimp and Grits Entree,10,n,Farmstead,West Union,American
Meatloaf Entree,10,n,Farmstead,West Union,American
Beef Stew Entree,10,n,Farmstead,West Union,Soup
Lamb Stew Entree,10,n,Farmstead,West Union,Soup
Roasted Chicken Entree,10,n,Farmstead,West Union,Soup
Roasted Local Sausage Entree,10,n,Farmstead,West Union,American
BBQ Chicken Entree,10,n,Farmstead,West Union,Grill
BBQ Country Style Ribs Entree,10,n,Farmstead,West Union,Grill
Lamo Saltillo Entree,10,n,Farmstead,West Union,Grill
Jerk Chicken Entree,10,n,Farmstead,West Union,Grill
Pernil Pork Entree,10,n,Farmstead,West Union,Grill
Carving Station: Herb Roasted Chicken/Turkey,7,n,Farmstead,West Union,Specialty
Carving Station: Slow Roasted Brisket,7,n,Farmstead,West Union,Specialty
Carving Station: Cedar Roasted Salmon,7,n,Farmstead,West Union,Specialty
Carving Station: Smoked Paprika Roasted Fresh Ham,7,n,Farmstead,West Union,Specialty
Carving Station: Porcetta Style Pork Loin,7,n,Farmstead,West Union,Specialty
Carving Station: Halal Lamb,7,n,Farmstead,West Union,Specialty
Carving Station: Garlic Roasted Beef Tri Tip,7,n,Farmstead,West Union,Specialty
Carving Station: Roasted Local Sausage,7,n,Farmstead,West Union,Specialty
Carving Station: Peach Glazed Pork Belly,7,n,Farmstead,West Union,Specialty
Kimchee Slaw,3,y,Farmstead,West Union,Other
Green Beans and Stewed Tomatoes,3,y,Farmstead,West Union,Other
Creamed Corn,3,y,Farmstead,West Union,Other
Maple Roasted Brussels,3,y,Farmstead,West Union,Other
Jasmine Rice,3,y,Farmstead,West Union,Other
Buttermilk Mashed Potatoes,3,y,Farmstead,West Union,Other
N.C. Cheddar Mac,3,y,Farmstead,West Union,Other
Farmstead Fries,3,y,Farmstead,West Union,Other
Make Your Own Bowl,8.95,n,Ginger and Soy,West Union,Asian
Ginger Chicken,7.95,n,Ginger and Soy,West Union,Asian
Sesame Chicken,7.95,n,Ginger and Soy,West Union,Asian
Teriyaki Chicken,7.95,n,Ginger and Soy,West Union,Asian
Teriyaki Beef,8.95,n,Ginger and Soy,West Union,Asian
Teriyaki Shrimp,9.95,n,Ginger and Soy,West Union,Asian
Teriyaki Tofu,7.95,n,Ginger and Soy,West Union,Asian
Chicken Katsu,8.95,n,Ginger and Soy,West Union,Asian
Flounder Katsu,8.95,n,Ginger and Soy,West Union,Asian
Mongolian Beef,9.95,n,Ginger and Soy,West Union,Asian
Yakisoba Noodles,8.95,n,Ginger and Soy,West Union,Asian
Tofu Pad Thai Noodles,7.95,n,Ginger and Soy,West Union,Asian
Chicken Pad Thai Noodles,7.95,n,Ginger and Soy,West Union,Asian
Shrimp Pad Thai Noodles,9.95,n,Ginger and Soy,West Union,Asian
Bulgogi Pad Thai Noodles,8.95,n,Ginger and Soy,West Union,Asian
Spicy Pork,8.95,n,Ginger and Soy,West Union,Asian
Honeyglazed Chicken,8.95,n,Ginger and Soy,West Union,Asian
Gyoza,3.95,y,Ginger and Soy,West Union,Asian
Shu Mai,3.95,y,Ginger and Soy,West Union,Asian
Mandoo,4.95,y,Ginger and Soy,West Union,Asian
Har Gow,4.95,y,Ginger and Soy,West Union,Asian
Shaomai,4.95,y,Ginger and Soy,West Union,Asian
Guotie,4.95,y,Ginger and Soy,West Union,Asian
Cha Siu Bao,4.95,y,Ginger and Soy,West Union,Asian
Poke Bowl,8.95,n,Ginger and Soy,West Union,Asian
Tonkotsu Ramen,7.95,n,Ginger and Soy,West Union,Asian
Miso Ramen,7.95,n,Ginger and Soy,West Union,Asian
Spicy Shin Ramen,7.95,n,Ginger and Soy,West Union,Asian
Shoyu Ramen,7.95,n,Ginger and Soy,West Union,Asian
Garden Salad,3.95,y,Gyotaku,West Union,Asian
Seaweed Salad,3.95,y,Gyotaku,West Union,Asian
Miso Soup,1.95,y,Gyotaku,West Union,Asian
Seasoned Scallop Salad,4.95,y,Gyotaku,West Union,Asian
Edamame,3.95,y,Gyotaku,West Union,Asian
Tuna Sashimi Bowl,9.95,n,Gyotaku,West Union,Asian
Salmon Sashimi Bowl,9.95,n,Gyotaku,West Union,Asian
Deluxe Sashimi Bowl,13.95,n,Gyotaku,West Union,Asian
Regular Sushi Bento,12.95,n,Gyotaku,West Union,Asian
Deluxe Sushi Bento,14.95,n,Gyotaku,West Union,Asian
California Roll,6.25,n,Gyotaku,West Union,Asian
Spicy Grilled Chicken Roll,6.25,n,Gyotaku,West Union,Asian
Veggie Roll,6.25,n,Gyotaku,West Union,Asian
Veggie Spring Roll,6.25,n,Gyotaku,West Union,Asian
Salmon Crunch Roll,7.49,n,Gyotaku,West Union,Asian
Creamy Veggie Roll,7.49,n,Gyotaku,West Union,Asian
Green Rainbow Roll,7.49,n,Gyotaku,West Union,Asian
Maru Roll,7.49,n,Gyotaku,West Union,Asian
Shrimp Tempura Roll,8.49,n,Gyotaku,West Union,Asian
Red Dragon Roll,8.49,n,Gyotaku,West Union,Asian
Rainbow Roll,8.49,n,Gyotaku,West Union,Asian
Spider Roll,8.49,n,Gyotaku,West Union,Asian
Duke Roll,8.49,n,Gyotaku,West Union,Asian
Dancing Eel Roll,8.49,n,Gyotaku,West Union,Asian
Salmon Rainbow Roll,8.49,n,Gyotaku,West Union,Asian
Gyotaku Special Roll,9.95,n,Gyotaku,West Union,Asian
Tuna Lover Roll,9.95,n,Gyotaku,West Union,Asian
Super Spider Roll,9.95,n,Gyotaku,West Union,Asian
Tex Mex Roll,9.95,n,Gyotaku,West Union,Asian
Make Your Own Roll,8.95,n,Gyotaku,West Union,Asian
Spicy Il Forno Small,6.5,n,Il Forno,West Union,Italian
Spicy Il Forno Regular,8.5,n,Il Forno,West Union,Italian
Chicken Basil Pesto Small,6.5,n,Il Forno,West Union,Italian
Chicken Basil Pesto Small,8.5,n,Il Forno,West Union,Italian
Chicken Alfredo Small,6.5,n,Il Forno,West Union,Italian
Chicken Alfredo Regular,8.5,n,Il Forno,West Union,Italian
Meatballs and Spaghetti Small,6.5,n,Il Forno,West Union,Italian
Meatballs and Spaghetti Regular,8.5,n,Il Forno,West Union,Italian
Pasta Your Way Small,5,n,Il Forno,West Union,Italian
Pasta Your Way Regular,7,n,Il Forno,West Union,Italian
Fried Calamari and Peppers,6.5,n,Il Forno,West Union,Italian
5 Chicken Wings,4.5,n,Il Forno,West Union,American
10 Chicken Wings,8.5,n,Il Forno,West Union,American
Beccorino Pizza,8.5,n,Il Forno,West Union,Italian
Harvest Pizza,8.5,n,Il Forno,West Union,Italian
Margherita Pizza,7,n,Il Forno,West Union,Italian
Blaise Pizza,8.5,n,Il Forno,West Union,Italian
PJ's New Yorker Pizza,8.5,n,Il Forno,West Union,Italian
Aria Pizza,8.5,n,Il Forno,West Union,Italian
Sedona Pizza,8.5,n,Il Forno,West Union,Italian
Quattro Pizza,8.5,n,Il Forno,West Union,Italian
Bruschetta Pizza,8.5,n,Il Forno,West Union,Italian
Kyle's BBQ Pizza,8.5,n,Il Forno,West Union,Italian
Skadoosh Pizza,8.5,n,Il Forno,West Union,Italian
Salsiccia Pizza,8.5,n,Il Forno,West Union,Italian
Design Your Own Pizza,6.5,n,Il Forno,West Union,Italian
Design Your Own Pizza with 1 Topping,7.5,n,Il Forno,West Union,Italian
Design Your Own Pizza with 2-4 Topings,8.5,n,Il Forno,West Union,Italian
Meatball Ciabattas,7.5,n,Il Forno,West Union,Sandwich
Sausage & Peppers Ciabattas,7.5,n,Il Forno,West Union,Sandwich
Portobello Basil Ciabattas,7.5,n,Il Forno,West Union,Sandwich
Italian Ciabattas,7.5,n,Il Forno,West Union,Sandwich
Chef Specialty Piadini,7,n,Il Forno,West Union,Sandwich
JB's Flank Steak,9,n,JBs Roast and Chops,West Union,Grill
Coal Braised Beef Brisket,9,n,JBs Roast and Chops,West Union,Grill
Prime Rib Au Jus,10,n,JBs Roast and Chops,West Union,Grill
NY Strip,10,n,JBs Roast and Chops,West Union,Grill
Bone In Pork Chop,10,n,JBs Roast and Chops,West Union,Grill
Rotisserie Chicken,7,n,JBs Roast and Chops,West Union,American
Salmon,12,n,JBs Roast and Chops,West Union,Specialty
Yellow Fin Tuna,12,n,JBs Roast and Chops,West Union,Specialty
Mahi Mahi,12,n,JBs Roast and Chops,West Union,Specialty
Cheesy Twice Baked Potato,3,y,JBs Roast and Chops,West Union,Other
Classic Caesar,5,n,JBs Roast and Chops,West Union,Salad
Spinach and Pear,6,n,JBs Roast and Chops,West Union,Salad
Apple and Fennel Chopped Salad,6,n,JBs Roast and Chops,West Union,Salad
Paella Mixta,8,n,JBs Roast and Chops,West Union,Spanish
Verduras,7,n,JBs Roast and Chops,West Union,Spanish
La Marinera,8,n,JBs Roast and Chops,West Union,Spanish
Prime Rib Steak Sandwich,9,n,JBs Roast and Chops,West Union,Sandwich
Chop House Steak Burger,9,n,JBs Roast and Chops,West Union,Sandwich
Marinated Grilled Chicken Breast,8,n,JBs Roast and Chops,West Union,American
Flourless Chocolate Torte,5,y,JBs Roast and Chops,West Union,Dessert
Carrot Cake,5,y,JBs Roast and Chops,West Union,Dessert
Tiramisu,5,y,JBs Roast and Chops,West Union,Dessert
Loop Burger,7.59,n,The Loop,Bryan Center,Sandwich
Beef White Cheese Burger,8.39,n,The Loop,Bryan Center,Sandwich
Beef Great American Cheeseburger,8.39,n,The Loop,Bryan Center,Sandwich
Beef Bacon Cheddar Burger,9.39,n,The Loop,Bryan Center,Sandwich
Beef Mushroom Swiss Burger,9.39,n,The Loop,Bryan Center,Sandwich
Beef BBQ Bacon Cheddar Burger,9.49,n,The Loop,Bryan Center,Sandwich
Beef Cajun & Jack Cheese Burger,8.49,n,The Loop,Bryan Center,Sandwich
Beef Southwest Burger,8.49,n,The Loop,Bryan Center,Sandwich
Turkey Burger,8.79,n,The Loop,Bryan Center,Sandwich
Three Strips Chicken Tender Platter,6.99,n,The Loop,Bryan Center,American
Five Strips Chicken Tender Platter,9.99,n,The Loop,Bryan Center,American
Grilled Chicken & Jack Cheese Burger,8.19,n,The Loop,Bryan Center,Sandwich
Chicken BBQ Bacon Cheddar Burger,9.49,n,The Loop,Bryan Center,Sandwich
Chicken Cajun & Jack Cheese Burger,8.19,n,The Loop,Bryan Center,Sandwich
Chicken Southwest Burger,8.39,n,The Loop,Bryan Center,Sandwich
Pesto Chicken Ciabatta,8.99,n,The Loop,Bryan Center,Sandwich
Grilled Salmon Sandwich,10.29,n,The Loop,Bryan Center,Sandwich
Cajun Fish or Shirmp Wrap,9.99,n,The Loop,Bryan Center,Sandwich
Grilled Fish Sandwich,9.99,n,The Loop,Bryan Center,Sandwich
Black Bean Burger,8.29,n,The Loop,Bryan Center,Sandwich
Veggie Melt Ciabatta,8.49,n,The Loop,Bryan Center,Sandwich
Grilled Portabello Sandwich,8.79,n,The Loop,Bryan Center,Sandwich
Grilled Vegetable Sandwich,9.29,n,The Loop,Bryan Center,Sandwich
Walnut Gorgonzola Salad,7.99,n,The Loop,Bryan Center,Salad
Asian Chicken Salad,8.29,n,The Loop,Bryan Center,Salad
Crunchy Broccoli Salad,7.99,n,The Loop,Bryan Center,Salad
Goat Cheese Salad,8.19,n,The Loop,Bryan Center,Salad
Caesar With Chicken Salad,8.29,n,The Loop,Bryan Center,Salad
Feta Mediterranean Salad,7.99,n,The Loop,Bryan Center,Salad
Crispy Chicken Salad,8.59,n,The Loop,Bryan Center,Salad
Garden With Chicken Salad,7.99,n,The Loop,Bryan Center,Salad
Grilled Vegetable With Couscous,7.99,n,The Loop,Bryan Center,Salad
Southwest Chicken,8.19,n,The Loop,Bryan Center,Salad
Soup Of The Day,3.29,y,The Loop,Bryan Center,Soup
Chili Soup,3.29,y,The Loop,Bryan Center,Soup
Tomato Bisque Soup,3.29,y,The Loop,Bryan Center,Soup
Crock of Creamy French Onion,4.29,y,The Loop,Bryan Center,Soup
Asian Chicken Wrap,8.19,n,The Loop,Bryan Center,Sandwich
Chicken Caeser Wrap,8.19,n,The Loop,Bryan Center,Sandwich
Chicken Salad,8.19,n,The Loop,Bryan Center,Sandwich
Buffalo Chicken,8.19,n,The Loop,Bryan Center,Sandwich
Five Cheese Pizza,14.59,n,The Loop,Bryan Center,Italian
Meat Market Pizza,14.59,n,The Loop,Bryan Center,Italian
Farmers Market Pizza,14.59,n,The Loop,Bryan Center,Italian
Special Pizza,14.59,n,The Loop,Bryan Center,Italian
BBQ Chicken Pesto Based Pies,14.59,n,The Loop,Bryan Center,Italian
Artichoke & Bacon Pesto Based Pies,14.59,n,The Loop,Bryan Center,Italian
Sausage & Goat Cheese Based Pies,14.59,n,The Loop,Bryan Center,Italian
Spicy Chicken Cilantro Pesto Based Pies,14.59,n,The Loop,Bryan Center,Italian
Portabello & Bacon Pesto Based Pies,14.59,n,The Loop,Bryan Center,Italian
Mediterranian Pesto Based Pies,14.59,n,The Loop,Bryan Center,Italian
Grilled Veggie Pesto Based Pies,14.59,n,The Loop,Bryan Center,Italian
Caprese Pesto Based Pies,14.59,n,The Loop,Bryan Center,Italian
Southwest Chicken Pesto Based Pies,14.59,n,The Loop,Bryan Center,Italian
Spicy Mac'n Cheese Bites,5.99,y,The Loop,Bryan Center,Other
Fried Mozzarella,4.99,y,The Loop,Bryan Center,Other
Jalapeno Cheddar Potato Bites,3.99,y,The Loop,Bryan Center,Other
Cheesy Breadsticks,3.79,y,The Loop,Bryan Center,Other
Chili Cheese Fries,5.99,y,The Loop,Bryan Center,Other
Cheese Fries,4.99,y,The Loop,Bryan Center,Other
Sweet Potato Fries,5.19,y,The Loop,Bryan Center,Other
Fried Pickle Chips,4.99,y,The Loop,Bryan Center,Other
Bowtie Shrimp Pasta,10.99,n,The Loop,Bryan Center,Italian
Grilled Veggie Bowtie Pasta,9.99,n,The Loop,Bryan Center,Italian
Cajun Chicken Alfredo,9.99,n,The Loop,Bryan Center,Italian
Vanilla Shake,3.99,n,The Loop,Bryan Center,Drink
Chocolate Shake,3.99,n,The Loop,Bryan Center,Drink
Strawberry Shake,3.99,n,The Loop,Bryan Center,Drink
Oreo Shake,4.09,n,The Loop,Bryan Center,Drink
Butterfinger Shake,4.09,n,The Loop,Bryan Center,Drink
Strawberry Shake,4.09,n,The Loop,Bryan Center,Drink
Reese's Peanut Butter Shake,4.09,n,The Loop,Bryan Center,Drink
Fudge Brownie Sundae,4.99,n,The Loop,Bryan Center,Drink
Hot Lava Cake,4.99,n,The Loop,Bryan Center,Dessert
Ice Cream Loopwich,3.5,n,The Loop,Bryan Center,Dessert
Cookie Sundae,4.49,n,The Loop,Bryan Center,Dessert
Egg McMuffin,2.99,n,McDonalds,Bryan Center,Breakfast
Egg White Deilght,2.99,n,McDonalds,Bryan Center,Breakfast
Fruit & Maple Oatmeal,2.29,n,McDonalds,Bryan Center,Breakfast
Fruit & Maple Oatmeal with Brown Sugar,2.29,n,McDonalds,Bryan Center,Breakfast
Sausage Biscuit,1.69,n,McDonalds,Bryan Center,Breakfast
Sausage Biscuit w Egg,2.69,n,McDonalds,Bryan Center,Breakfast
Sausage Biscuit w Egg White,2.69,n,McDonalds,Bryan Center,Breakfast
Sausage Burrito,1.59,n,McDonalds,Bryan Center,Breakfast
Sausage McGriddle,2.59,n,McDonalds,Bryan Center,Breakfast
Sausage McMuffin with Egg Whites,2.59,n,McDonalds,Bryan Center,Breakfast
Sausage McMuffin,2.19,n,McDonalds,Bryan Center,Breakfast
Sausage McMuffin with Egg Whites,2.89,n,McDonalds,Bryan Center,Breakfast
"Sausage, Egg & Cheese McGriddle w Egg Whites",3.19,n,McDonalds,Bryan Center,Breakfast
"Sausage, Egg & Cheese McGriddle",3.19,n,McDonalds,Bryan Center,Breakfast
Southern Style Chicken Biscuit,2.99,n,McDonalds,Bryan Center,Breakfast
"Bacon, Egg & Cheese Bagel",3.39,n,McDonalds,Bryan Center,Breakfast
"Bacon, Egg & Cheese Bagel w Egg Whites",3.39,n,McDonalds,Bryan Center,Breakfast
"Bacon, Egg & Cheese Biscuit",3.19,n,McDonalds,Bryan Center,Breakfast
"Bacon, Egg & Cheese Biscuit w Egg White",3.19,n,McDonalds,Bryan Center,Breakfast
"Bacon, Egg & Cheese McGriddle",3.19,n,McDonalds,Bryan Center,Breakfast
"Bacon, Egg & Cheese McGriddle w Egg Whites",3.19,n,McDonalds,Bryan Center,Breakfast
Hotcakes,2.49,n,McDonalds,Bryan Center,Breakfast
Hotcakes and Sausage,3.29,n,McDonalds,Bryan Center,Breakfast
Big Breakfast with Hotcakes,4.69,n,McDonalds,Bryan Center,Breakfast
Big Breakfast with Egg Whites,4.69,n,McDonalds,Bryan Center,Breakfast
Big Breakfast with Hotcakes and Egg Whites,4.69,n,McDonalds,Bryan Center,Breakfast
Big Breakfast with Biscuit,3.59,n,McDonalds,Bryan Center,Breakfast
Hash Brown,0.99,n,McDonalds,Bryan Center,Breakfast
Cinnamon Melts,1.69,n,McDonalds,Bryan Center,Breakfast
Premium Bacon Ranch Salad (without Chicken),3.89,n,McDonalds,Bryan Center,Salad
Premium Bacon Ranch Salad w Crispy Chicken,5.39,n,McDonalds,Bryan Center,Salad
Premium Bacon Ranch Salad w Grilled Chicken,5.39,n,McDonalds,Bryan Center,Salad
Premium Caesar Salad (without Chicken),3.89,n,McDonalds,Bryan Center,Salad
Premium Caesar Salad w Crispy Chicken,5.39,n,McDonalds,Bryan Center,Salad
Premium Caesar Salad w Grilled Chicken,5.39,n,McDonalds,Bryan Center,Salad
Premium Southwest Salad (without Chicken),3.89,n,McDonalds,Bryan Center,Salad
Premium Southwest Salad w Crispy Chicken,5.39,n,McDonalds,Bryan Center,Salad
Premium Southwest Salad w Grilled Chicken,5.39,n,McDonalds,Bryan Center,Salad
Hamburger,1.19,n,McDonalds,Bryan Center,Sandwich
Cheeseburger,1.39,n,McDonalds,Bryan Center,Sandwich
Griled Onion Cheddar,1,n,McDonalds,Bryan Center,Sandwich
Big Mac,3.99,n,McDonalds,Bryan Center,Sandwich
Daily Double,2.69,n,McDonalds,Bryan Center,Sandwich
Filet-O-Fish,3.29,n,McDonalds,Bryan Center,Sandwich
McChicken,1,n,McDonalds,Bryan Center,Sandwich
McDouble,1,n,McDonalds,Bryan Center,Sandwich
Quarter Pounder with Cheese,3.89,n,McDonalds,Bryan Center,Sandwich
Quarter Pounder Delux,3.99,n,McDonalds,Bryan Center,Sandwich
Quarter Pounder Bacon & Cheese,3.99,n,McDonalds,Bryan Center,Sandwich
Quarter Pounder Bacon Habanero Ranch,3.99,n,McDonalds,Bryan Center,Sandwich
Double Cheeseburger,2.59,n,McDonalds,Bryan Center,Sandwich
Double Quarter Pounder with Cheese,4.89,n,McDonalds,Bryan Center,Sandwich
Southern Style Crispy Chicken Sandwich,3.69,n,McDonalds,Bryan Center,Sandwich
Premium Crispy Chicken Classic Ranch,4.69,n,McDonalds,Bryan Center,Sandwich
Premium Crispy Chicken Club Sandwich,5.09,n,McDonalds,Bryan Center,Sandwich
Premium Crispy Chicken Ranch BLT Sandwich,4.89,n,McDonalds,Bryan Center,Sandwich
Premium Grilled Chicken Classic Ranch,4.69,n,McDonalds,Bryan Center,Sandwich
Premium Grilled Chicken Club Sandwich,5.09,n,McDonalds,Bryan Center,Sandwich
Premium Grilled Chicken Ranch BLT Sandwich,4.89,n,McDonalds,Bryan Center,Sandwich
Premium McWrap Chicken & Bacon (Crispy),3.99,n,McDonalds,Bryan Center,Sandwich
Premium McWrap Chicken & Bacon (Grilled),3.99,n,McDonalds,Bryan Center,Sandwich
Premium McWrap Chicken & Ranch (Crispy),3.99,n,McDonalds,Bryan Center,Sandwich
Premium McWrap Chicken & Ranch (Grilled),3.99,n,McDonalds,Bryan Center,Sandwich
Premium McWrap Chicken Sweet Chili (Crispy),3.99,n,McDonalds,Bryan Center,Sandwich
Premium McWrap Chicken Sweet Chili (Grilled),3.99,n,McDonalds,Bryan Center,Sandwich
Chicken McNuggets (6 piece),2.89,n,McDonalds,Bryan Center,American
Chicken NcNuggets (10 piece),4.19,n,McDonalds,Bryan Center,American
Chicken NcNuggets (20 piece),4.99,n,McDonalds,Bryan Center,American
Vanilla Reduced Fat Ice Cream Cone,1,n,McDonalds,Bryan Center,Dessert
Baked hot Apple Pie,1,n,McDonalds,Bryan Center,Dessert
Chocolate Chip Cookie,0.59,n,McDonalds,Bryan Center,Dessert
Hot Caramel Sundae,1.59,n,McDonalds,Bryan Center,Dessert
Hot Fudge Sundae,1.59,n,McDonalds,Bryan Center,Dessert
Snack Size McFlurry with M&M Candies,1.99,n,McDonalds,Bryan Center,Dessert
McFlurry with M&M Candies (12 oz),1.99,n,McDonalds,Bryan Center,Dessert
Snack Size McFlurry with OREO Cookies,1.99,n,McDonalds,Bryan Center,Dessert
McFlurry with OREO Cookies (12 oz),1.99,n,McDonalds,Bryan Center,Dessert
Premium Roast Coffee (Small),1,n,McDonalds,Bryan Center,Drink
Premium Roast Coffee (Medium),1,n,McDonalds,Bryan Center,Drink
Premium Roast Coffee (Large),1,n,McDonalds,Bryan Center,Drink
Latte (Small),2.29,n,McDonalds,Bryan Center,Drink
Latte (Medium),2.79,n,McDonalds,Bryan Center,Drink
Latte (Large),3.29,n,McDonalds,Bryan Center,Drink
Nonfat Latte (Small),2.29,n,McDonalds,Bryan Center,Drink
Nonfat Latte (Medium),2.79,n,McDonalds,Bryan Center,Drink
Nonfat Latte (Large),3.29,n,McDonalds,Bryan Center,Drink
French Vanilla Latte (Small),2.29,n,McDonalds,Bryan Center,Drink
French Vanilla Latte (Medium),2.79,n,McDonalds,Bryan Center,Drink
French Vanilla Latte (Large),3.29,n,McDonalds,Bryan Center,Drink
Nonfat French Vanilla Latte (Small),2.29,n,McDonalds,Bryan Center,Drink
Nonfat French Vanilla Latte (Medium),2.79,n,McDonalds,Bryan Center,Drink
Nonfat French Vanilla Latte (Large),3.29,n,McDonalds,Bryan Center,Drink
Nonfat Latte w Sugar Free Frehcn Vanilla Syrup (Small),2.29,n,McDonalds,Bryan Center,Drink
Nonfat Latte w Sugar Free Frehcn Vanilla Syrup (Medium),2.79,n,McDonalds,Bryan Center,Drink
Nonfat Latte w Sugar Free Frehcn Vanilla Syrup (Large),3.29,n,McDonalds,Bryan Center,Drink
Caramel Latte (Small),2.29,n,McDonalds,Bryan Center,Drink
Caramel Latte (Medium),2.79,n,McDonalds,Bryan Center,Drink
Caramel Latte (Large),3.29,n,McDonalds,Bryan Center,Drink
Nonfat Caramel Latte (Small),2.29,n,McDonalds,Bryan Center,Drink
Nonfat Caramel Latte (Medium),2.79,n,McDonalds,Bryan Center,Drink
Nonfat Caramel Latte (Large),3.29,n,McDonalds,Bryan Center,Drink
Hazelnut Latte (Small),2.29,n,McDonalds,Bryan Center,Drink
Hazelnut Latte (Medium),2.79,n,McDonalds,Bryan Center,Drink
Hazelnut Latte (Large),3.29,n,McDonalds,Bryan Center,Drink
Nonfat Hazelnut Latte (Small),2.29,n,McDonalds,Bryan Center,Drink
Nonfat Hazelnut Latte (Medium),2.79,n,McDonalds,Bryan Center,Drink
Nonfat Hazelnut Latte (Large),3.29,n,McDonalds,Bryan Center,Drink
Mocha (Small),2.59,n,McDonalds,Bryan Center,Drink
Mocha (Medium),3.09,n,McDonalds,Bryan Center,Drink
Mocha (Large),3.59,n,McDonalds,Bryan Center,Drink
Mocha with Nonfat Milk (Small),2.59,n,McDonalds,Bryan Center,Drink
Mocha with Nonfat Milk (Medium),3.09,n,McDonalds,Bryan Center,Drink
Mocha with Nonfat Milk (Large),3.59,n,McDonalds,Bryan Center,Drink
Caramel Mocha (Small),2.59,n,McDonalds,Bryan Center,Drink
Caramel Mocha (Medium),3.09,n,McDonalds,Bryan Center,Drink
Caramel Mocha (Large),3.59,n,McDonalds,Bryan Center,Drink
Nonfat Caramel Mocha (Small),2.59,n,McDonalds,Bryan Center,Drink
Nonfat Caramel Mocha (Medium),3.09,n,McDonalds,Bryan Center,Drink
Nonfat Caramel Mocha (Large),3.59,n,McDonalds,Bryan Center,Drink
Hot Chocolate (Small),1.99,n,McDonalds,Bryan Center,Drink
Hot Chocolate (Medium),2.49,n,McDonalds,Bryan Center,Drink
Hot Chocolate (Large),3.09,n,McDonalds,Bryan Center,Drink
Hot Chocolate with Nonfat Milk (Small),1.99,n,McDonalds,Bryan Center,Drink
Hot Chocolate with Nonfat Milk (Medium),2.49,n,McDonalds,Bryan Center,Drink
Hot Chocolate with Nonfat Milk (Large),3.09,n,McDonalds,Bryan Center,Drink
Caramel Hot Chocolate w Nonfat Milk (Small),1.99,n,McDonalds,Bryan Center,Drink
Caramel Hot Chocolate w Nonfat Milk (Medium),2.49,n,McDonalds,Bryan Center,Drink
Caramel Hot Chocolate w Nonfat Milk (Large),3.09,n,McDonalds,Bryan Center,Drink
Iced Coffee Regular (Medium),2.49,n,McDonalds,Bryan Center,Drink
Iced Coffee Regular (Large),2.69,n,McDonalds,Bryan Center,Drink
Iced Coffee with Sugar Free French Vanilla Syrup (Medium),2.39,n,McDonalds,Bryan Center,Drink
Iced Coffee with Sugar Free French Vanilla Syrup (Large),2.69,n,McDonalds,Bryan Center,Drink
Iced Coffee Caramel (Medium),2.39,n,McDonalds,Bryan Center,Drink
Iced Coffee Caramel (Large),2.69,n,McDonalds,Bryan Center,Drink
Iced Coffee French Vanilla (Medium),2.39,n,McDonalds,Bryan Center,Drink
Iced Coffee French Vanilla (Large),2.69,n,McDonalds,Bryan Center,Drink
Iced Coffee Hazelnut (Medium),2.39,n,McDonalds,Bryan Center,Drink
Iced Coffee Hazelnut (Large),2.69,n,McDonalds,Bryan Center,Drink
Iced Mocha (Small),2.59,n,McDonalds,Bryan Center,Drink
Iced Mocha (Medium),3.09,n,McDonalds,Bryan Center,Drink
Iced Mocha (Large),3.59,n,McDonalds,Bryan Center,Drink
Iced Mocha with Nonfat Milk (Small),2.59,n,McDonalds,Bryan Center,Drink
Iced Mocha with Nonfat Milk (Medium),3.09,n,McDonalds,Bryan Center,Drink
Iced Mocha with Nonfat Milk (Large),3.59,n,McDonalds,Bryan Center,Drink
Iced Caramel Mocha (Small),2.59,n,McDonalds,Bryan Center,Drink
Iced Caramel Mocha (Medium),3.09,n,McDonalds,Bryan Center,Drink
Iced Caramel Mocha (Large),3.59,n,McDonalds,Bryan Center,Drink
Iced Nonfat Caramel Mocha (Small),2.59,n,McDonalds,Bryan Center,Drink
Iced Nonfat Caramel Mocha (Medium),3.09,n,McDonalds,Bryan Center,Drink
Iced Nonfat Caramel Mocha (Large),3.59,n,McDonalds,Bryan Center,Drink
Blueberry Pomegranate Smoothie (Large),3.79,n,McDonalds,Bryan Center,Drink
Blueberry Pomegranate Smoothie (Medium),3.29,n,McDonalds,Bryan Center,Drink
Blueberry Pomegranate Smoothie (Small),2.49,n,McDonalds,Bryan Center,Drink
Mango Pineapple Smoothie (Small),2.49,n,McDonalds,Bryan Center,Drink
Mango Pineapple Smoothie (Medium),3.29,n,McDonalds,Bryan Center,Drink
Mango Pineapple Smoothie (Large),3.79,n,McDonalds,Bryan Center,Drink
Strawberry Banana Smoothie (Small),2.49,n,McDonalds,Bryan Center,Drink
Strawberry Banana Smoothie (Medium),3.29,n,McDonalds,Bryan Center,Drink
Strawberry Banana Smoothie (Large),3.79,n,McDonalds,Bryan Center,Drink
Cherry Berry Chiller (Small),1,n,McDonalds,Bryan Center,Drink
Frozen Strawberry Lemonade (Small),1,n,McDonalds,Bryan Center,Drink
Frappe Mocha (Small),2.49,n,McDonalds,Bryan Center,Drink
Frappe Mocha (Medium),3.29,n,McDonalds,Bryan Center,Drink
Frappe Mocha (Large),3.79,n,McDonalds,Bryan Center,Drink
Frappe Caramel (Small),2.49,n,McDonalds,Bryan Center,Drink
Frappe Caramel (Medium),3.29,n,McDonalds,Bryan Center,Drink
Frappe Caramel (Large),3.79,n,McDonalds,Bryan Center,Drink
Frappe Chocolate Chip (Small),2.49,n,McDonalds,Bryan Center,Drink
Frappe Chocolate Chip (Medium),3.29,n,McDonalds,Bryan Center,Drink
Frappe Chocolate Chip (Large),3.79,n,McDonalds,Bryan Center,Drink
Chocolate McCafe Shake (Small),1.99,n,McDonalds,Bryan Center,Drink
Chocolate McCafe Shake (Medium),2.49,n,McDonalds,Bryan Center,Drink
Strawberry McCafe Shake (Small),1.99,n,McDonalds,Bryan Center,Drink
Strawberry McCafe Shake (Medium),2.49,n,McDonalds,Bryan Center,Drink
Vanilla McCafe Shake (Small),1.99,n,McDonalds,Bryan Center,Drink
Vanilla McCafe Shake (Medium),2.49,n,McDonalds,Bryan Center,Drink
Small Drink,1.49,n,McDonalds,Bryan Center,Drink
Medium Drink,1.69,n,McDonalds,Bryan Center,Drink
Large Drink,1.89,n,McDonalds,Bryan Center,Drink
Chipotle BBQ Snack Wrap (Crispy),1.59,n,McDonalds,Bryan Center,Sandwhich
Chipotle BBQ Snack Wrap (Grilled),1.59,n,McDonalds,Bryan Center,Sandwhich
Honey Mustard Snack Wrap (Crispy),1.59,n,McDonalds,Bryan Center,Sandwhich
Honey Mustard Snack Wrap (Grilled),1.59,n,McDonalds,Bryan Center,Sandwhich
Ranch Snack Wrap (Crispy),1.59,n,McDonalds,Bryan Center,Sandwhich
Ranch Snack Wrap (Grilled),1.59,n,McDonalds,Bryan Center,Sandwhich
Mac Snack Wrap,1.59,n,McDonalds,Bryan Center,Sandwhich
Side Salad,1.49,y,McDonalds,Bryan Center,Salad
Fruit 'n Yogurt Parfait,1.69,n,McDonalds,Bryan Center,Other
Small French Fries,1.19,n,McDonalds,Bryan Center,Other
Medium French Fries,1.49,n,McDonalds,Bryan Center,Other
Large French Fries,1.89,n,McDonalds,Bryan Center,Other
Grilled Cheese,6,n,Pitchforks,McClendon,Sandwich
Black Angus Burger,9,n,Pitchforks,McClendon,Sandwich
Morty's Reuben,10,n,Pitchforks,McClendon,Sandwich
Grilled Chicken Sandwich,9.5,n,Pitchforks,McClendon,Sandwich
Salmon Burger,9.5,n,Pitchforks,McClendon,Sandwich
Pulled Pork Barbeque Sandwich,9,n,Pitchforks,McClendon,Sandwich
The Godfather,9.5,n,Pitchforks,McClendon,Sandwich
Veggie Single,9,n,Pitchforks,McClendon,Sandwich
Banh Mi,9.5,n,Pitchforks,McClendon,Sandwich
Chopped Mexican Salad,9.5,n,Pitchforks,McClendon,Salad
E Tu Caesar?!,9,n,Pitchforks,McClendon,Salad
Garden of Edens,9,n,Pitchforks,McClendon,Salad
California Club,10,n,Pitchforks,McClendon,Salad
Meze Platter,9.5,n,Pitchforks,McClendon,Salad
Papaya Salad,9,n,Pitchforks,McClendon,Salad
Breakfast Quesadilla,7,n,Pitchforks,McClendon,Breakfast
Breakfast Scrambles,8,n,Pitchforks,McClendon,Breakfast
Build a Biscuit,2,n,Pitchforks,McClendon,Breakfast
Pancakes,6,n,Pitchforks,McClendon,Breakfast
Fried Egg BLT,8,n,Pitchforks,McClendon,Breakfast
Eggs Your Way,7,n,Pitchforks,McClendon,Breakfast
Biscuit and Gravy,5,n,Pitchforks,McClendon,Breakfast
Lox and Bagel,6,n,Pitchforks,McClendon,Breakfast
Oatmeal,3,n,Pitchforks,McClendon,Breakfast
Chicken Vindaloo,12,n,Pitchforks,McClendon,Indian
Spaghetti and Meatballs,12,n,Pitchforks,McClendon,Italian
Mole Ribs and Rice,12,n,Pitchforks,McClendon,Grill
Grilled Flat Iron Steak,15,n,Pitchforks,McClendon,Grill
Chicken Pommes Frites,14,n,Pitchforks,McClendon,American
Salmon Hot Pot,14,n,Pitchforks,McClendon,Asian
Veggie Lasagna,10,n,Pitchforks,McClendon,Italian
Wings Your Way,9.5,n,Pitchforks,McClendon,American
Falafel on Pita,8,n,Pitchforks,McClendon,Mediterranean
Samosas,9.5,n,Pitchforks,McClendon,Indian
The Haystack,9,n,Pitchforks,McClendon,American
Tacos (one),4,n,Pitchforks,McClendon,Mexican
Tacos (two),7,n,Pitchforks,McClendon,Mexican
Tacos (three),9,n,Pitchforks,McClendon,Mexican
Fried Chicken Slider,5.5,n,Pitchforks,McClendon,American
Grilled Quesadilla,5,n,Pitchforks,McClendon,Mexican
Deli Case Side,3,y,Pitchforks,McClendon,Other
Fries,3,y,Pitchforks,McClendon,Other
Tots,3,y,Pitchforks,McClendon,Other
Salad,3,y,Pitchforks,McClendon,Salad
Breakfast Blue Plate,7,n,Skillet,West Union,Breakfast
Omelets To Order,8,n,Skillet,West Union,Breakfast
Two Biscuits With Gravy,4,n,Skillet,West Union,Breakfast
Build a Biscuit,2,n,Skillet,West Union,Breakfast
Hash Browns,2.5,y,Skillet,West Union,Breakfast
Sausage,3,y,Skillet,West Union,Breakfast
Country Ham,3,y,Skillet,West Union,Breakfast
Brown Casserole,3,y,Skillet,West Union,Breakfast
Biscuits,2,y,Skillet,West Union,Breakfast
Grits,2,y,Skillet,West Union,Breakfast
Sausage Gravy,2,y,Skillet,West Union,Breakfast
Hot Oatmeal,2.5,y,Skillet,West Union,Breakfast
Fruit,3,y,Skillet,West Union,Breakfast
Bacon,3,y,Skillet,West Union,Breakfast
Fried Chicken (quarter),7,n,Skillet,West Union,American
Fried Chicken (half),9,n,Skillet,West Union,American
Pulled Pork BBQ Sandwich,8,n,Skillet,West Union,Sandwich
Pulled Pork BBQ Platter,9,n,Skillet,West Union,American
Po' Boy of the Day,8,n,Skillet,West Union,American
Mac and Cheese,2.5,y,Skillet,West Union,Other
Collard Greens,2.5,y,Skillet,West Union,Other
Baked Beans,2.5,y,Skillet,West Union,Other
Green Beans,2.5,y,Skillet,West Union,Other
Dirty Rice,2.5,y,Skillet,West Union,Other
Potato Salad,2.5,y,Skillet,West Union,Salad
Cole Slaw,2.5,y,Skillet,West Union,Salad
Appled Bread Pudding,5,n,Skillet,West Union,Dessert
Banana Pudding,4,n,Skillet,West Union,Dessert
Seasonal Cobbler,4,n,Skillet,West Union,Dessert
Soup of the day,4,y,Sprout,West Union,Soup
Vegetarian Lentil,4,y,Sprout,West Union,Soup
White Bean Minestrone,4,y,Sprout,West Union,Soup
Tomato Basil with Soy,4,y,Sprout,West Union,Soup
Loaded Potato with Bacon,4,y,Sprout,West Union,Soup
Spicy Thai Coconut Chicken,4,y,Sprout,West Union,Soup
Stuffed Pepper,5.5,n,Sprout,West Union,Soup
Lebanese Moussaka,5.5,n,Sprout,West Union,Mediterranean
Herbed Lentil and Rice,5.5,n,Sprout,West Union,Mediterranean
Spinach Lasagna,5.5,n,Sprout,West Union,Italian
Vegetable Curried Tofu,5.5,n,Sprout,West Union,American
Dehydrated Tofu,5.5,n,Sprout,West Union,American
Spanakopita,5.5,n,Sprout,West Union,Mediterranean
Pasta of the day,5.5,n,Sprout,West Union,Italian
Salad 1 portion,4,y,Sprout,West Union,Salad
Salad 2 portion,6,y,Sprout,West Union,Salad
Salad 3 portion,8,y,Sprout,West Union,Salad
Salad 4 portion,10,y,Sprout,West Union,Salad
Falafel Sandwich,5,y,Sprout,West Union,Sandwich
Big Cheese Sandwich,5,y,Sprout,West Union,Sandwich
Egg plant Sandwich,5,y,Sprout,West Union,Sandwich
Korma,8,n,Tandoor,West Union,Indian
Jalfraize,8,n,Tandoor,West Union,Indian
Vindaloo,8,n,Tandoor,West Union,Indian
Aloo Methi,8,n,Tandoor,West Union,Indian
Bhindi Masala,8,n,Tandoor,West Union,Indian
Mutter Panir,8,n,Tandoor,West Union,Indian
Panir Makhani,8,n,Tandoor,West Union,Indian
Dal Makhani,8,n,Tandoor,West Union,Indian
Vegetable Makhani,8,n,Tandoor,West Union,Indian
Bhuna,8,n,Tandoor,West Union,Indian
Naan,2,y,Tandoor,West Union,Indian
Garlic Naan,3,y,Tandoor,West Union,Indian
Onion Kulcha,3,y,Tandoor,West Union,Indian
Panir Kulcha,4,y,Tandoor,West Union,Indian
Chicken Tikka Naan,5,y,Tandoor,West Union,Indian
Peswari Naan,4,y,Tandoor,West Union,Indian
Vegetarian Lunch Combo,7,n,Tandoor,West Union,Indian
Non Vegetarian Lunch Combo,8,n,Tandoor,West Union,Indian
Vegetarian Dinner Combo,8,n,Tandoor,West Union,Indian
Non Vegetarian Dinner Combo,9,n,Tandoor,West Union,Indian
Panir Tikka,10,n,Tandoor,West Union,Indian
Chicken Tikka,10,n,Tandoor,West Union,Indian
Chicken Malai Kebabs,10,n,Tandoor,West Union,Indian
Chicken Tandoori,10,n,Tandoor,West Union,Indian
Fish Tandoori,12,n,Tandoor,West Union,Indian
Shrimp Tandoori,12,n,Tandoor,West Union,Indian
Shrimp Malai Kebabs,12,n,Tandoor,West Union,Indian
Lamb Sheek Kebab,12,n,Tandoor,West Union,Indian
Gulab Jamun,3,y,Tandoor,West Union,Dessert
Kheer,3,y,Tandoor,West Union,Dessert
Rasmalal,3,y,Tandoor,West Union,Dessert
Mango Lassi,3,y,Tandoor,West Union,Drink
Strawberry Lassi,3,y,Tandoor,West Union,Drink
Chicken Pita,5.25,n,Twinnies,CIEMAS,Sandwich 
Panini,6.5,n,Twinnies,CIEMAS,Sandwich 
Chicken Focaccia,6.75,n,Twinnies,CIEMAS,Sandwich 
Peanut Tuna Salad,6.25,n,Twinnies,CIEMAS,Sandwich 
Roast Beef,6.75,n,Twinnies,CIEMAS,Sandwich 
Reuben,6.25,n,Twinnies,CIEMAS,Sandwich 
Turkey Muffaletta,6.5,n,Twinnies,CIEMAS,Sandwich 
Turkey Club on Pita,6.5,n,Twinnies,CIEMAS,Sandwich 
Veggie Pita,4.95,n,Twinnies,CIEMAS,Sandwich 
Twinnie's Cuban,6.75,n,Twinnies,CIEMAS,Sandwich 
Spanakopita,6.95,n,Twinnies,CIEMAS,Mediterranean
Salad Sampler,6,n,Twinnies,CIEMAS,Salad
Soup Of The Day,3,y,Twinnies,CIEMAS,Soup
Breakfast Sandwich,4.25,n,Twinnies,CIEMAS,Breakfast
Assorted Muffins,1.95,y,Twinnies,CIEMAS,Breakfast
Scones,2.25,y,Twinnies,CIEMAS,Breakfast
Assorted Bagels,1.75,y,Twinnies,CIEMAS,Breakfast
Cinnamon Rolls,0.85,y,Twinnies,CIEMAS,Breakfast
Large Cinnamon Rolls,3.5,y,Twinnies,CIEMAS,Breakfast
Filled Croissants,2.75,y,Twinnies,CIEMAS,Breakfast
Plain Croissants,2.25,y,Twinnies,CIEMAS,Breakfast
Fruit Salad,3.5,y,Twinnies,CIEMAS,Breakfast
"Chicken, Egg, and Cheese Biscuit",2.5,n,Twinnies,CIEMAS,Breakfast
"Sausage, Egg, and Cheese Biscuit",2.5,n,Twinnies,CIEMAS,Breakfast
Sausage and Egg Biscuit,2.25,n,Twinnies,CIEMAS,Breakfast
Egg and Cheese Biscuit,2,n,Twinnies,CIEMAS,Breakfast
Turkey Club,6.69,n,Au Bon Pain,West Union,Sandwich
Caprese,6.59,n,Au Bon Pain,West Union,Sandwich
Chipotle Black Bean Burger with Avocado,6.79,n,Au Bon Pain,West Union,Sandwich
Classic Chicken Salad,5.99,n,Au Bon Pain,West Union,Sandwich
Turkey & Swiss,6.59,n,Au Bon Pain,West Union,Sandwich
Tuna Salad,6.39,n,Au Bon Pain,West Union,Sandwich
Black Angus Roast Beef & Chedder,6.59,n,Au Bon Pain,West Union,Sandwich
Thai Peanut Chicken Wrap,6.19,n,Au Bon Pain,West Union,Sandwich
Chicken Caesar Wrap,5.99,n,Au Bon Pain,West Union,Sandwich
Napa Chicken with Avocado Wrap,6.49,n,Au Bon Pain,West Union,Sandwich
Chicken Cobb with Avocado Salad,7.99,n,Au Bon Pain,West Union,Salad
Vegetarian Deluxe Salad,6.99,n,Au Bon Pain,West Union,Salad
Chicken Caesar Asiago Salad,7.29,n,Au Bon Pain,West Union,Salad
Thai Peanut Chicken Salad,7.39,n,Au Bon Pain,West Union,Salad
Harvest Turkey Salad,7.69,n,Au Bon Pain,West Union,Salad
Southwest Chicken Salad,7.59,n,Au Bon Pain,West Union,Salad
Egg Whites & Cheddar,3.79,n,Au Bon Pain,West Union,Breakfast
"Egg Whites, Cheddar & Avocado",4.59,n,Au Bon Pain,West Union,Breakfast
2 Eggs & Cheddar Sandwich,3.09,n,Au Bon Pain,West Union,Breakfast
2 Egg Sandwich,3.69,n,Au Bon Pain,West Union,Breakfast
Smoked Salmon Wasabi,3.99,n,Au Bon Pain,West Union,Breakfast
Biscuit & Sausage,2.79,n,Au Bon Pain,West Union,Breakfast
Toasted Bagel & Cream Cheese,2.19,n,Au Bon Pain,West Union,Breakfast
Avocado BLT,6.69,n,Au Bon Pain,West Union,Sandwich
Classic BLT,5.49,n,Au Bon Pain,West Union,Sandwich
Newport Turkey,7.19,n,Au Bon Pain,West Union,Sandwich
Chicken Margherita,7.39,n,Au Bon Pain,West Union,Sandwich
Country Grilled Cheese,6.09,n,Au Bon Pain,West Union,Sandwich
Ham & Two Cheese,6.29,n,Au Bon Pain,West Union,Sandwich
Black Angus Steak & Cheese,7.29,n,Au Bon Pain,West Union,Sandwich
Warm Chicken & Avocado,7.39,n,Au Bon Pain,West Union,Sandwich
Caprese with Chicken,7.49,n,Au Bon Pain,West Union,Sandwich
Chipotle Turkey & Avocado,7.19,n,Au Bon Pain,West Union,Sandwich
Harvest Turkey Wrap,6.39,n,Au Bon Pain,West Union,Sandwich
Veggie & Hummus Wrap,5.99,n,Au Bon Pain,West Union,Sandwich
Thai Peanut Chicken Wrap,6.19,n,Au Bon Pain,West Union,Sandwich
Garden & Avocado Wrap,6.09,n,Au Bon Pain,West Union,Sandwich
Frozen Mocha,3.99,n,Au Bon Pain,West Union,Drink
Frozen Caramel,3.99,n,Au Bon Pain,West Union,Drink
Strawberry Banana Smoothie,3.99,n,Au Bon Pain,West Union,Drink
Berry Pomegranate Smoothie,3.99,n,Au Bon Pain,West Union,Drink
Mango Smoothie,3.99,n,Au Bon Pain,West Union,Drink
Caffe Latte - Medium,1.99,n,Au Bon Pain,West Union,Drink
Cappuccino - Medium,1.99,n,Au Bon Pain,West Union,Drink
Mocha Latte - Medium,1.99,n,Au Bon Pain,West Union,Drink
Vanilla Latte - Medium,1.99,n,Au Bon Pain,West Union,Drink
Caffe Milano - Medium,1.99,n,Au Bon Pain,West Union,Drink
Caramel Macchiato - Medium,1.99,n,Au Bon Pain,West Union,Drink
Caffe Americano - Medium,1.99,n,Au Bon Pain,West Union,Drink
Chai Latte - Medium,1.99,n,Au Bon Pain,West Union,Drink
Hot Chocolate - Medium,1.99,n,Au Bon Pain,West Union,Drink
Caffe Latte - Large ,2.5,n,Au Bon Pain,West Union,Drink
Cappuccino - Large,2.5,n,Au Bon Pain,West Union,Drink
Mocha Latte - Large,2.5,n,Au Bon Pain,West Union,Drink
Vanilla Latte - Large,2.5,n,Au Bon Pain,West Union,Drink
Caffe Milano - Large,2.5,n,Au Bon Pain,West Union,Drink
Caramel Macchiato - Large,2.5,n,Au Bon Pain,West Union,Drink
Caffe Americano - Large,2.5,n,Au Bon Pain,West Union,Drink
Chai Latte - Large,2.5,n,Au Bon Pain,West Union,Drink
Hot Chocolate - Large,2.5,n,Au Bon Pain,West Union,Drink
Double Shot Espresso,1.59,n,Au Bon Pain,West Union,Drink
Small Soup of the Day,3.5,y,Blue Express,LSRC,Soup
Large Soup of the Day,4.25,y,Blue Express,LSRC,Soup
Entrees of the Day,6.25,n,Blue Express,LSRC,Specialty
Daily Seafood Special,7.25,n,Blue Express,LSRC,Specialty
Sandwich of the Day,6.25,n,Blue Express,LSRC,Sandwich
Gobbler,6.75,n,Blue Express,LSRC,Sandwich
Turkey Avocado,7.25,n,Blue Express,LSRC,Sandwich
Italian Combo,7.25,n,Blue Express,LSRC,Sandwich
Chicken Salad,6.5,n,Blue Express,LSRC,Sandwich
The Yella,6.25,n,Blue Express,LSRC,Sandwich
Big Cheese,5.75,n,Blue Express,LSRC,Sandwich
The Caesar,6.5,n,Blue Express,LSRC,Sandwich
Small Soup & Salad,5.95,n,Blue Express,LSRC,Salad
One Salad,3.75,y,Blue Express,LSRC,Salad
Two Salads,4.95,y,Blue Express,LSRC,Salad
Three Salads,5.75,y,Blue Express,LSRC,Salad
Spanakopita,4.5,y,Blue Express,LSRC,Mediterranean
1/2 Spanakopita,2.25,y,Blue Express,LSRC,Mediterranean
1/2 Spanakopita & Salad,4.95,n,Blue Express,LSRC,Mediterranean
Hot Entree,6.95,n,Blue Express,LSRC,American
Hot Entree + 1 side,7.95,n,Blue Express,LSRC,American
Hot Entree + 2 sides,8.5,n,Blue Express,LSRC,American
Seafood,7.95,n,Blue Express,LSRC,American
Seafood + 1 side,8.95,n,Blue Express,LSRC,American
Seafood + 2 side,9.25,n,Blue Express,LSRC,American
Pizza,3.25,n,Blue Express,LSRC,Italian
Pizza & Salad,5.5,n,Blue Express,LSRC,Italian
Small Soup w/ 1/2 Spanakopita,4.95,n,Blue Express,LSRC,Soup
Small Soup w/ Spanakopita,6.95,n,Blue Express,LSRC,Soup
Large Soup w/ 1/2 Spanakopita,5.95,n,Blue Express,LSRC,Soup
Large Soup w/ Spanakopita,7.25,n,Blue Express,LSRC,Soup
Spanakopita,6.25,n,Blue Express,LSRC,Mediterranean